....
----------------------------------------------------------------------
Ran 4 tests in 0.001s

OK
Name               Stmts   Miss Branch BrPart  Cover   Missing
--------------------------------------------------------------
Diplomacy.py         107      4     86     12    92%   33->43, 52->23, 55, 56->23, 64->67, 76->exit, 121->124, 128->124, 133, 134->124, 148, 188
TestDiplomacy.py      26      0      0      0   100%
--------------------------------------------------------------
TOTAL                133      4     86     12    93%
