...............
----------------------------------------------------------------------
Ran 15 tests in 0.001s

OK
Name               Stmts   Miss Branch BrPart  Cover   Missing
--------------------------------------------------------------
Diplomacy.py          56      0     34      0   100%
TestDiplomacy.py      93      0      0      0   100%
--------------------------------------------------------------
TOTAL                149      0     34      0   100%